<?xml version="1.0" encoding="windows-1252" standalone="no"?>
<!DOCTYPE log SYSTEM "logger.dtd">
<log>
<record>
  <date>2017-07-16T21:15:42</date>
  <millis>1500236142028</millis>
  <sequence>0</sequence>
  <logger></logger>
  <level>INFO</level>
  <class>java.util.logging.LogManager$RootLogger</class>
  <method>log</method>
  <thread>1</thread>
  <message>Started-new</message>
</record>
<record>
  <date>2017-07-21T14:31:36</date>
  <millis>1500643896340</millis>
  <sequence>1</sequence>
  <logger></logger>
  <level>INFO</level>
  <class>java.util.logging.LogManager$RootLogger</class>
  <method>log</method>
  <thread>12</thread>
  <message>start:1500643896340</message>
</record>
<record>
  <date>2017-07-21T14:31:42</date>
  <millis>1500643902403</millis>
  <sequence>2</sequence>
  <logger></logger>
  <level>INFO</level>
  <class>java.util.logging.LogManager$RootLogger</class>
  <method>log</method>
  <thread>12</thread>
  <message>888: end time:1500643902402</message>
</record>
