<?xml version="1.0" encoding="UTF-8" standalone="no"?>
<!DOCTYPE log SYSTEM "logger.dtd">
<log>
<record>
  <date>2018-09-19T12:26:44.731206Z</date>
  <millis>1537360004731</millis>
  <nanos>206000</nanos>
  <sequence>0</sequence>
  <logger></logger>
  <level>INFO</level>
  <class>uk.ac.ncl.ndjc9.ClassroomVoting.Generator</class>
  <method>main</method>
  <thread>1</thread>
  <message>Started-new</message>
</record>
<record>
  <date>2018-09-19T12:26:50.921585Z</date>
  <millis>1537360010921</millis>
  <nanos>585000</nanos>
  <sequence>1</sequence>
  <logger></logger>
  <level>INFO</level>
  <class>uk.ac.ncl.ndjc9.ClassroomVoting.Generator</class>
  <method>run</method>
  <thread>11</thread>
  <message>start:1537360010921</message>
</record>
<record>
  <date>2018-09-19T12:26:51.662069Z</date>
  <millis>1537360011662</millis>
  <nanos>69000</nanos>
  <sequence>2</sequence>
  <logger></logger>
  <level>SEVERE</level>
  <class>uk.ac.ncl.ndjc9.ClassroomVoting.Generator</class>
  <method>run</method>
  <thread>11</thread>
  <message>java.sql.SQLException: Column count doesn't match value count at row 1</message>
</record>
</log>
